3 Bitácora 4 – Bitácoras Grupo #5, CA-204 (II-2024)
…
Rows: 30000 Columns: 25
── Column specification ────────────────────────────────────────────────────────
Delimiter: ","
dbl (25): ID, LIMIT_BAL, SEX, EDUCATION, MARRIAGE, AGE, PAY_0, PAY_2, PAY_3,...

ℹ Use `spec()` to retrieve the full column specification for this data.
ℹ Specify the column types or set `show_col_types = FALSE` to quiet this message.

# Visualizamos nuestro dataset.
data_credit

# A tibble: 30,000 × 25
      ID LIMIT_BAL   SEX EDUCATION MARRIAGE   AGE PAY_0 PAY_2 PAY_3 PAY_4 PAY_5
   <dbl>     <dbl> <dbl>     <dbl>    <dbl> <dbl> <dbl> <dbl> <dbl> <dbl> <dbl>
 1     1     20000     2         2        1    24     2     2    -1    -1    -2
 2     2    120000     2         2        2    26    -1     2     0     0     0
 3     3     90000     2         2        2    34     0     0     0     0     0
 4     4     50000     2         2        1    37     0     0     0     0     0
 5     5     50000     1         2        1    57    -1     0    -1     0     0
 6     6     50000     1         1        2    37     0     0     0     0     0
 7     7    500000     1         1        2    29     0     0     0     0     0
 8     8    100000     2         2        2    23     0    -1    -1     0     0
 9     9    140000     2         3        1    28     0     0     2     0     0
10    10     20000     1         3        2    35    -2    -2    -2    -2    -1
# ℹ 29,990 more rows
# ℹ 14 more variables: PAY_6 <dbl>, BILL_AMT1 <dbl>, BILL_AMT2 <dbl>,
#   BILL_AMT3 <dbl>, BILL_AMT4 <dbl>, BILL_AMT5 <dbl>, BILL_AMT6 <dbl>,
#   PAY_AMT1 <dbl>, PAY_AMT2 <dbl>, PAY_AMT3 <dbl>, PAY_AMT4 <dbl>,
#   PAY_AMT5 <dbl>, PAY_AMT6 <dbl>, default.payment.next.month <dbl>
…
